<?xml version="1.0"?>
<svg xmlns="http://www.w3.org/2000/svg" viewBox="0 0 530 398" enable-background="new 0 0 530 398">
  <switch>
    <g>
      <path d="m225 394v-45c0-22.06 17.944-40 40-40h6c27.57 0 50-22.43 50-50s-22.43-50-50-50h-6c-38.598 0-70-31.402-70-70s31.402-70 70-70h5c11.03 0 20-8.972 20-20v-45h20v45c0 22.06-17.944 40-40 40h-5c-27.57 0-50 22.43-50 50s22.43 50 50 50h6c38.598 0 70 31.402 70 70s-31.402 70-70 70h-6c-11.03 0-20 8.972-20 20v45h-20z" fill="#5c72cc" stroke="#4d4d4d" stroke-linejoin="round" stroke-linecap="round" stroke-width="4" stroke-miterlimit="10"/>
      <path d="m527.5 189h-140.5c-22.06 0-40 17.944-40 40s17.944 40 40 40h42c11.03 0 20 8.972 20 20s-8.972 20-20 20h-3-161c-27.57 0-50-22.43-50-50s22.43-50 50-50h6c38.598 0 70-31.402 70-70s-31.402-70-70-70h-49c-11.03 0-20-8.972-20-20v-45h-20v45c0 22.06 17.944 40 40 40h49c27.57 0 50 22.43 50 50s-22.43 50-50 50h-6c-38.598 0-70 31.402-70 70s31.402 70 70 70h161 3c22.06 0 40-17.944 40-40 0-22.06-17.944-40-40-40h-42c-11.03 0-20-8.972-20-20s8.972-20 20-20h140.5v-20z" fill="#909bfc" stroke="#4d4d4d" stroke-linejoin="round" stroke-linecap="round" stroke-width="4" stroke-miterlimit="10"/>
      <path d="m158 394v-165c0-11.03-8.972-20-20-20h-108c-5.522 0-10-4.477-10-10s4.478-10 10-10h108c22.06 0 40 17.944 40 40v165h-20z" fill="#5c72cc" stroke="#4d4d4d" stroke-linejoin="round" stroke-linecap="round" stroke-width="4" stroke-miterlimit="10"/>
      <path d="m51 329h-47v-20h47c11.03 0 20-8.972 20-20v-180c0-11.03-8.972-20-20-20h-47v-20h47c22.06 0 40 17.944 40 40v180c0 22.06-17.944 40-40 40z" fill="#5c72cc" stroke="#4d4d4d" stroke-linejoin="round" stroke-linecap="round" stroke-width="4" stroke-miterlimit="10"/>
      <path d="m118 209h-114v-20h114c11.03 0 20-8.972 20-20v-165h20v165c0 22.06-17.944 40-40 40z" fill="#909bfc" stroke="#4d4d4d" stroke-linejoin="round" stroke-linecap="round" stroke-width="4" stroke-miterlimit="10"/>
      <path fill="none" stroke="#4d4d4d" stroke-linejoin="round" stroke-linecap="round" stroke-width="8" stroke-miterlimit="10" d="m153 394h30"/>
      <path fill="none" stroke="#4d4d4d" stroke-linejoin="round" stroke-linecap="round" stroke-width="8" stroke-miterlimit="10" d="m220 394h30"/>
      <path fill="none" stroke="#4d4d4d" stroke-linejoin="round" stroke-linecap="round" stroke-width="8" stroke-miterlimit="10" d="m526 184v30"/>
      <path fill="none" stroke="#4d4d4d" stroke-linejoin="round" stroke-linecap="round" stroke-width="8" stroke-miterlimit="10" d="m4 184v30"/>
      <path fill="none" stroke="#4d4d4d" stroke-linejoin="round" stroke-linecap="round" stroke-width="8" stroke-miterlimit="10" d="m4 304v30"/>
      <path fill="none" stroke="#4d4d4d" stroke-linejoin="round" stroke-linecap="round" stroke-width="8" stroke-miterlimit="10" d="m4 64v30"/>
      <path fill="none" stroke="#4d4d4d" stroke-linejoin="round" stroke-linecap="round" stroke-width="8" stroke-miterlimit="10" d="m285 4h30"/>
      <path fill="none" stroke="#4d4d4d" stroke-linejoin="round" stroke-linecap="round" stroke-width="8" stroke-miterlimit="10" d="m177 4h30"/>
      <path fill="none" stroke="#4d4d4d" stroke-linejoin="round" stroke-linecap="round" stroke-width="8" stroke-miterlimit="10" d="m133 4h30"/>
      <path transform="matrix(0 1-1 0 403 67)" fill="#ed6265" stroke="#4d4d4d" stroke-linejoin="round" stroke-linecap="round" stroke-width="4" stroke-miterlimit="10" d="m164 231h8v8h-8z"/>
      <path transform="matrix(.1433.9897-.9897.1433 316.16-81.23)" fill="#ed6265" stroke="#4d4d4d" stroke-linejoin="round" stroke-linecap="round" stroke-width="4" stroke-miterlimit="10" d="m201 138h8v8h-8z"/>
      <path transform="matrix(0 1-1 0 308 90)" fill="#fbb03b" stroke="#4d4d4d" stroke-linejoin="round" stroke-linecap="round" stroke-width="4" stroke-miterlimit="10" d="m105 195h8v8h-8z"/>
      <path transform="matrix(0 1-1 0 319 157)" fill="#fbb03b" stroke="#4d4d4d" stroke-linejoin="round" stroke-linecap="round" stroke-width="4" stroke-miterlimit="10" d="m77 234h8v8h-8z"/>
      <path transform="matrix(0 1-1 0 638 0)" fill="#fbb03b" stroke="#4d4d4d" stroke-linejoin="round" stroke-linecap="round" stroke-width="4" stroke-miterlimit="10" d="m315 315h8v8h-8z"/>
      <path transform="matrix(0 1-1 0 482 146)" fill="#a3cc6c" stroke="#4d4d4d" stroke-linejoin="round" stroke-linecap="round" stroke-width="4" stroke-miterlimit="10" d="m164 310h8v8h-8z"/>
      <path transform="matrix(-.2717.9624-.9624-.2717 681.44 28.33)" fill="#a3cc6c" stroke="#4d4d4d" stroke-linejoin="round" stroke-linecap="round" stroke-width="4" stroke-miterlimit="10" d="m326 268h8v8h-8z"/>
      <path transform="matrix(0 1-1 0 215 53)" fill="#ed6265" stroke="#4d4d4d" stroke-linejoin="round" stroke-linecap="round" stroke-width="4" stroke-miterlimit="10" d="m77 130h8v8h-8z"/>
      <path transform="matrix(0 1-1 0 237 75)" fill="#a3cc6c" stroke="#4d4d4d" stroke-linejoin="round" stroke-linecap="round" stroke-width="4" stroke-miterlimit="10" d="m77 152h8v8h-8z"/>
      <path transform="matrix(0 1-1 0 602-204)" fill="#a3cc6c" stroke="#4d4d4d" stroke-linejoin="round" stroke-linecap="round" stroke-width="4" stroke-miterlimit="10" d="m399 195h8v8h-8z"/>
      <path transform="matrix(0 1-1 0 624-226)" fill="#ed6265" stroke="#4d4d4d" stroke-linejoin="round" stroke-linecap="round" stroke-width="4" stroke-miterlimit="10" d="m421 195h8v8h-8z"/>
      <path transform="matrix(0 1-1 0 646-248)" fill="#9f94c4" stroke="#4d4d4d" stroke-linejoin="round" stroke-linecap="round" stroke-width="4" stroke-miterlimit="10" d="m443 195h8v8h-8z"/>
      <path transform="matrix(0 1-1 0 317-283)" fill="#a3cc6c" stroke="#4d4d4d" stroke-linejoin="round" stroke-linecap="round" stroke-width="4" stroke-miterlimit="10" d="m296 13h8v8h-8z"/>
      <path transform="matrix(0 1-1 0 314-156)" fill="#a3cc6c" stroke="#4d4d4d" stroke-linejoin="round" stroke-linecap="round" stroke-width="4" stroke-miterlimit="10" d="m231 75h8v8h-8z"/>
      <path transform="matrix(0 1-1 0 504 168)" fill="#9f94c4" stroke="#4d4d4d" stroke-linejoin="round" stroke-linecap="round" stroke-width="4" stroke-miterlimit="10" d="m164 332h8v8h-8z"/>
      <path transform="matrix(0 1-1 0 168-128)" fill="#ed6265" stroke="#4d4d4d" stroke-linejoin="round" stroke-linecap="round" stroke-width="4" stroke-miterlimit="10" d="m144 16h8v8h-8z"/>
      <path transform="matrix(0 1-1 0 217-79)" fill="#a3cc6c" stroke="#4d4d4d" stroke-linejoin="round" stroke-linecap="round" stroke-width="4" stroke-miterlimit="10" d="m144 65h8v8h-8z"/>
      <path transform="matrix(0 1-1 0 239-57)" fill="#9f94c4" stroke="#4d4d4d" stroke-linejoin="round" stroke-linecap="round" stroke-width="4" stroke-miterlimit="10" d="m144 87h8v8h-8z"/>
      <path transform="matrix(0 1-1 0 464-66)" fill="#9f94c4" stroke="#4d4d4d" stroke-linejoin="round" stroke-linecap="round" stroke-width="4" stroke-miterlimit="10" d="m261 195h8v8h-8z"/>
      <path transform="matrix(0 1-1 0 118 40)" fill="#9f94c4" stroke="#4d4d4d" stroke-linejoin="round" stroke-linecap="round" stroke-width="4" stroke-miterlimit="10" d="m35 75h8v8h-8z"/>
      <path transform="matrix(0 1-1 0 719-321)" fill="#9f94c4" stroke="#4d4d4d" stroke-linejoin="round" stroke-linecap="round" stroke-width="4" stroke-miterlimit="10" d="m516 195h8v8h-8z"/>
    </g>
  </switch>
</svg>
